{
  "namespace": "Sandbox.Feature.Headless.Data",
  "references": [
    "Sandbox.Foundation.*"
  ],
  "items": {
    "includes": [
      {
        "name": "Templates-Data",
        "path": "/sitecore/templates/Feature/Sandbox/Headless/Data",
        "database": "master"
      }
    ]
  },
  "leprechaun": {
    "configuration": {
      "@extends": "Sandbox.Base",
      "@name": "Feature.Data"
    }
  }
}
