{
  "version": 1,
  "isRoot": true,
  "tools": {
    "sitecore.cli": {
      "version": "4.0.0",
      "commands": [
        "sitecore"
      ]
    },
    "leprechaun.cli": {
      "version": "2.1.0",
      "commands": [
        "leprechaun"
      ]
    }
  }
}